type,protocol,resource,run,average requests/second
# measured on stream49
musl,http,16KiB.txt,0,5442.82
musl,http,16KiB.txt,1,5418.37
musl,http,1MiB.txt,0,450.58
musl,http,1MiB.txt,1,464.03
musl,https,16KiB.txt,0,130.14
musl,https,16KiB.txt,1,130.77
musl,https,1MiB.txt,0,47.43
musl,https,1MiB.txt,1,48.17
sgxmusl,http,16KiB.txt,0,3449.73
sgxmusl,http,16KiB.txt,1,3663.95
sgxmusl,http,1MiB.txt,0,140.95
sgxmusl,http,1MiB.txt,1,140.90
sgxmusl,https,16KiB.txt,0,46.51
sgxmusl,https,16KiB.txt,1,46.40
sgxmusl,https,1MiB.txt,0,11.75
sgxmusl,https,1MiB.txt,1,11.77
